{
    "organizationDetail": {
        "organizationList": [
            {
                "orgId": "1001",
                "orgName": "LuproLink",
                "orgAdminUserId": "LL",
                "orgAdminEmail": "LuproLicnk@gg.com"
            },
            {
                "orgId": "1002",
                "orgName": "Aphena",
                "orgAdminUserId": "AH",
                "orgAdminEmail": "Aphena@gg.com"
            },
            {
                "orgId": "1003",
                "orgName": "Eisai",
                "orgAdminUserId": "ES",
                "orgAdminEmail": "Eisai@gg.com"
            },
            {
                "orgId": "1004",
                "orgName": "Hospira",
                "orgAdminUserId": "HP",
                "orgAdminEmail": "Hospira@gg.com"
            }

	 	]
    }
}
