{
  "project": "rfXcel-ITT",
  "version": 6,
  "createDate": "2016-10-21 12:27:37",
  "instanceType": "Production",
  "responseStatus": "success",
  "itemId": "99000512000353",
  "sensor": {
    "attributeList": [
      {
        "attrId": 1,
        "attrName": "temperature"
      },
      {
        "attrId": 2,
        "attrName": "pressure"
      },
      {
        "attrId": 3,
        "attrName": "humidity"
      },
      {
        "attrId": 4,
        "attrName": "light"
      },
      {
        "attrId": 5,
        "attrName": "tilt"
      },
      {
        "attrId": 6,
        "attrName": "GrowthLog"
      },
      {
        "attrId": 7,
        "attrName": "CumulativeLog"
      },
      {
        "attrId": 12,
        "attrName": "shock"
      },
      {
        "attrId": 13,
        "attrName": "battery"
      }
    ]
  }
}